[
    {
        "grupo_id": 1,
        "nome": "NAO ALCOOLICOS",
        "tipo": "BN"
    },
    {
        "grupo_id": 2,
        "nome": "ALCOOLICOS",
        "tipo": "BL"
    },
    {
        "grupo_id": 3,
        "nome": "ALIMENTOS ",
        "tipo": "AL"
    },
    {
        "grupo_id": 4,
        "nome": "BOMBONIERE",
        "tipo": "AL"
    }
]