[
    {
        "codigo": "1001",
        "descricao": "AGUA COM GAS",
        "unidade": "UN",
        "grupo_id": 1
    },
    {
        "codigo": "1002",
        "descricao": "AGUA SEM GAS",
        "unidade": "UN",
        "grupo_id": 1
    },
    {
        "codigo": "1003",
        "descricao": "AQUARIUS LIMAO",
        "unidade": "UN",
        "grupo_id": 1
    },
    {
        "codigo": "1004",
        "descricao": "COCA-COLA LATA",
        "unidade": "UN",
        "grupo_id": 1
    },
    {
        "codigo": "1005",
        "descricao": "COCA ZERO LATA",
        "unidade": "UN",
        "grupo_id": 1
    },
    {
        "codigo": "1006",
        "descricao": "GUARANA KUAT LATA",
        "unidade": "UN",
        "grupo_id": 1
    },
    {
        "codigo": "1007",
        "descricao": "GUARANA KUAT LIGHT L",
        "unidade": "UN",
        "grupo_id": 1
    },
    {
        "codigo": "1008",
        "descricao": "SUCO PESSEGO",
        "unidade": "UN",
        "grupo_id": 1
    },
    {
        "codigo": "1009",
        "descricao": "SUCO PESSEGO LIGHT",
        "unidade": "UN",
        "grupo_id": 1
    },
    {
        "codigo": "1010",
        "descricao": "CHA GELADO ",
        "unidade": "UN",
        "grupo_id": 1
    },
    {
        "codigo": "1011",
        "descricao": "CAFE ESPR ",
        "unidade": "UN",
        "grupo_id": 1
    },
    {
        "codigo": "1012",
        "descricao": "CAFE ESPR LEGGERO",
        "unidade": "UN",
        "grupo_id": 1
    },
    {
        "codigo": "1013",
        "descricao": "CAFE ESPR DESCAFEINA",
        "unidade": "UN",
        "grupo_id": 1
    },
    {
        "codigo": "1014",
        "descricao": "CERVEJA ",
        "unidade": "UN",
        "grupo_id": 2
    },
    {
        "codigo": "1015",
        "descricao": "PROSECCO TACA",
        "unidade": "UN",
        "grupo_id": 2
    },
    {
        "codigo": "1016",
        "descricao": "WH RED LABEL DOSE",
        "unidade": "UN",
        "grupo_id": 2
    },
    {
        "codigo": "1017",
        "descricao": "VINHO TINTO TACA",
        "unidade": "UN",
        "grupo_id": 2
    },
    {
        "codigo": "1018",
        "descricao": "PICOLE MORANGO",
        "unidade": "UN",
        "grupo_id": 4
    },
    {
        "codigo": "1019",
        "descricao": "PICOLE DOCE DE LEITE",
        "unidade": "UN",
        "grupo_id": 4
    },
    {
        "codigo": "1020",
        "descricao": "PICOLE CHOC ITALIANO",
        "unidade": "UN",
        "grupo_id": 4
    },
    {
        "codigo": "1021",
        "descricao": "PICOLE LIMAO SICILIA",
        "unidade": "UN",
        "grupo_id": 4
    },
    {
        "codigo": "1022",
        "descricao": "PIPOCA BALDE",
        "unidade": "UN",
        "grupo_id": 3
    },
    {
        "codigo": "1023",
        "descricao": "PIPOCA GRANDE",
        "unidade": "UN",
        "grupo_id": 3
    },
    {
        "codigo": "1024",
        "descricao": "PIPOCA MEDIA",
        "unidade": "UN",
        "grupo_id": 3
    },
    {
        "codigo": "1025",
        "descricao": "MANTEIGA EXTRA",
        "unidade": "UN",
        "grupo_id": 3
    },
    {
        "codigo": "1026",
        "descricao": "HOT ",
        "unidade": "UN",
        "grupo_id": 3
    },
    {
        "codigo": "1027",
        "descricao": "PAO DE QUEIJO 6 UN",
        "unidade": "UN",
        "grupo_id": 3
    },
    {
        "codigo": "1028",
        "descricao": "EMPADA DE FRANGO",
        "unidade": "UN",
        "grupo_id": 3
    },
    {
        "codigo": "1029",
        "descricao": "ALGODAO DOCE",
        "unidade": "UN",
        "grupo_id": 4
    },
    {
        "codigo": "1030",
        "descricao": "BALA FINI",
        "unidade": "UN",
        "grupo_id": 4
    },
    {
        "codigo": "1031",
        "descricao": "CHOCOLATE MeM",
        "unidade": "UN",
        "grupo_id": 4
    },
    {
        "codigo": "1032",
        "descricao": "MENTOS STICK",
        "unidade": "UN",
        "grupo_id": 4
    },
    {
        "codigo": "1033",
        "descricao": "MENTOS TEENS",
        "unidade": "UN",
        "grupo_id": 4
    },
    {
        "codigo": "1034",
        "descricao": "MIX DE CASTANHAS",
        "unidade": "UN",
        "grupo_id": 4
    },
    {
        "codigo": "1035",
        "descricao": "CHOCOLATE SUFLAIR",
        "unidade": "UN",
        "grupo_id": 4
    },
    {
        "codigo": "1036",
        "descricao": "CHOCOLATE TWIX",
        "unidade": "UN",
        "grupo_id": 4
    },
    {
        "codigo": "1037",
        "descricao": "CH TALENTO ",
        "unidade": "UN",
        "grupo_id": 4
    },
    {
        "codigo": "1038",
        "descricao": "CH TALENTO AVELAS",
        "unidade": "NULL",
        "grupo_id": 4
    },
    {
        "codigo": "1039",
        "descricao": "SUCO UVA",
        "unidade": "NULL",
        "grupo_id": 1
    },
    {
        "codigo": "1040",
        "descricao": "SUCO UVA LIGHT",
        "unidade": "NULL",
        "grupo_id": 1
    },
    {
        "codigo": "1041",
        "descricao": "SUCO MANGA",
        "unidade": "NULL",
        "grupo_id": 1
    }
]